
1
00:00:01,250 --> 00:00:03,475
啊咧？為什麼不出來啊

2
00:00:03,475 --> 00:00:05,410
快出來啊

3
00:00:05,410 --> 00:00:06,600
牙打

4
00:00:06,600 --> 00:00:07,850
為什麼

5
00:00:07,850 --> 00:00:11,025
好的 悲しき近距離恋愛、家出の夜

6
00:00:11,025 --> 00:00:13,775
為各位獻上這兩首歌 非常謝謝大家

7
00:00:13,875 --> 00:00:16,100
謝謝大家

8
00:00:19,325 --> 00:00:21,725
很緊張呢

9
00:00:21,842 --> 00:00:23,842
很緊張

10
00:00:23,842 --> 00:00:26,287
可是之後是兩個人一起

11
00:00:26,287 --> 00:00:29,300
是啊 阿在這想拍一下合影

12
00:00:29,475 --> 00:00:33,300
來拍吧 為什麼你們要笑呢

13
00:00:33,525 --> 00:00:35,825
可能我說的太突然了吧

14
00:00:36,850 --> 00:00:39,300
來拍吧

15
00:00:40,000 --> 00:00:43,150
站著可以嗎？雖然平時都座著

16
00:00:43,225 --> 00:00:46,225
可是CP公演都是站著的呢

17
00:00:46,450 --> 00:00:47,725
這樣啊

18
00:00:47,825 --> 00:00:51,575
姿勢怎麼辦，這樣？

19
00:00:51,575 --> 00:00:53,100
就擺26吧

20
00:00:53,100 --> 00:00:55,343
好像16期的姿勢

21
00:01:09,900 --> 00:01:13,625
（再擺一個姿勢吧）

22
00:01:13,725 --> 00:01:16,350
我不知道耶 請

23
00:01:17,500 --> 00:01:20,800
好難啊 那來作那兩張吧

24
00:01:20,950 --> 00:01:24,475
有幫我們寫托姆傻貨公演呢

25
00:01:25,325 --> 00:01:29,150
好像會很多人想買

26
00:01:37,575 --> 00:01:40,975
（笑得好開心ｗｗｗ）

27
00:01:46,225 --> 00:01:51,075
好的 謝謝大家

28
00:01:51,450 --> 00:01:53,525
現在拍的寫真啊

29
00:01:53,675 --> 00:01:59,175
之後會在線上商店 akb48 group shop中販售

30
00:01:59,300 --> 00:02:02,825
各位請一定要購買 請多指教

31
00:02:05,675 --> 00:02:09,100
那麼那麼十夢醬

32
00:02:09,275 --> 00:02:12,200
你記得昨天是什麼日子嗎

33
00:02:12,475 --> 00:02:14,050
當然啊

34
00:02:14,200 --> 00:02:15,725
昨天是

35
00:02:15,900 --> 00:02:18,175
北島三郎先生的生日

36
00:02:18,600 --> 00:02:22,675
啊，是這樣沒錯啦

37
00:02:22,675 --> 00:02:25,675
但是還有其他的吧

38
00:02:25,925 --> 00:02:27,925
我知道我知道 是那個

39
00:02:28,250 --> 00:02:30,525
天使之日吧

40
00:02:30,600 --> 00:02:35,425
就是大家在Twiter中上傳許多像是天使的推的照片的日子吧

41
00:02:35,425 --> 00:02:36,475
對對

42
00:02:36,475 --> 00:02:38,375
總之就是我的生日！

43
00:02:38,375 --> 00:02:39,600
我沒這樣說

44
00:02:39,875 --> 00:02:41,575
大正解 不愧是十夢

45
00:02:41,675 --> 00:02:42,950
太好了呢

46
00:02:43,300 --> 00:02:46,550
如果是十夢的話 大概我的事什麼都知道

47
00:02:48,175 --> 00:02:51,025
你不知道嗎？你說不知道？（女盆友黑化www）

48
00:02:51,025 --> 00:02:52,525
繼續吧

49
00:02:52,525 --> 00:02:55,900
所以今天準備了沙穗猜謎

50
00:02:56,150 --> 00:02:57,600
有不好的預感

51
00:02:57,875 --> 00:02:59,400
接下來這個個猜謎

52
00:02:59,575 --> 00:03:02,475
猜謎環節總共有５個問題

53
00:03:02,775 --> 00:03:05,475
如果十夢答對兩題以下

54
00:03:05,625 --> 00:03:07,825
無法答對一半問題的話

55
00:03:08,075 --> 00:03:10,225
就要進行處罰遊戲

56
00:03:10,225 --> 00:03:12,375
處罰遊戲。。。

57
00:03:14,375 --> 00:03:17,325
要為了這種無意義的猜謎進行處罰嗎

58
00:03:17,325 --> 00:03:21,575
你竟然說沒有意義。。。你說沒有意義

59
00:03:21,850 --> 00:03:23,150
可是 沒問題的吧

60
00:03:23,325 --> 00:03:26,950
我知道了 我去拿東西

61
00:03:27,100 --> 00:03:30,425
不過沒問題吧 ５題中答對２題

62
00:03:30,425 --> 00:03:32,075
快點去拿回來

63
00:03:32,075 --> 00:03:33,900
好啦好啦

64
00:03:36,525 --> 00:03:38,625
啊出現了呢 這種素描本

65
00:03:38,725 --> 00:03:41,450
對啊 認真考慮問題了

66
00:03:41,525 --> 00:03:43,300
道具都準備好了

67
00:03:43,800 --> 00:03:46,450
可以開始了嗎

68
00:03:46,550 --> 00:03:48,650
大家也來一起回答吧

69
00:03:48,950 --> 00:03:50,450
沒問題嗎

70
00:03:50,450 --> 00:03:52,175
沒有問題

71
00:03:52,175 --> 00:03:55,475
那我們就開始囉

72
00:03:55,800 --> 00:03:58,050
會不會很難拿著

73
00:03:58,275 --> 00:04:00,300
不難拿喔

74
00:04:00,725 --> 00:04:03,900
那沙穗猜謎要開始囉

75
00:04:04,200 --> 00:04:06,700
沙穗猜謎第一題在這裡

76
00:04:06,925 --> 00:04:09,425
這是什麼？

77
00:04:09,600 --> 00:04:11,325
對呢 我也覺得

78
00:04:11,325 --> 00:04:13,175
是士大夫幫我做的

79
00:04:13,175 --> 00:04:15,075
字糊了嗎

80
00:04:15,275 --> 00:04:17,000
第一題 這是蝗蟲喔

81
00:04:17,000 --> 00:04:19,600
蝗蟲？！

82
00:04:19,875 --> 00:04:21,925
從DMM的工作人員那裡

83
00:04:21,925 --> 00:04:24,750
真假 我以為是圖案糊了竟然是蝗蟲啊

84
00:04:24,750 --> 00:04:26,750
是的 努力為我用蝗蟲做了１（感受到滿滿的愛ｗｗｗ）

85
00:04:26,750 --> 00:04:28,300
口怕

86
00:04:28,350 --> 00:04:30,625
所以儘快來進行第一題吧

87
00:04:30,625 --> 00:04:31,850
口～怕

88
00:04:31,850 --> 00:04:33,450
可以看到關節

89
00:04:34,075 --> 00:04:36,000
對啊 很用心呢

90
00:04:36,300 --> 00:04:38,425
總之開始進行吧

91
00:04:38,650 --> 00:04:40,875
第一題非常的簡單喔

92
00:04:41,425 --> 00:04:47,000
AKB48 13期生的第一次登場是什麼時候呢

93
00:04:48,775 --> 00:04:50,125
十夢醬

94
00:04:50,350 --> 00:04:52,225
那個...可以只有日期嗎

95
00:04:52,425 --> 00:04:54,925
哪一年你也記得吧

96
00:04:54,950 --> 00:04:56,700
你會記得吧

97
00:04:57,025 --> 00:04:59,250
捏前輩 你應該記得吧

98
00:04:59,750 --> 00:05:03,225
我自己進來的年數也記不清楚呢

99
00:05:03,525 --> 00:05:05,350
真糟啊

100
00:05:05,600 --> 00:05:07,400
20...

101
00:05:07,525 --> 00:05:12,525
20...大家都知道吧

102
00:05:12,875 --> 00:05:19,300
（2010吧，我現在第10年，9年前進來...）

103
00:05:19,675 --> 00:05:23,125
這應該是很簡單吧

104
00:05:23,325 --> 00:05:25,350
超級簡單

105
00:05:25,475 --> 00:05:28,200
問題在這裡喔

106
00:05:28,200 --> 00:05:29,825
這個啊

107
00:05:30,025 --> 00:05:33,500
VR怎麼看到呢？真好奇

108
00:05:33,500 --> 00:05:35,925
這種感覺

109
00:05:40,825 --> 00:05:43,750
超級煩惱

110
00:05:43,750 --> 00:05:46,825
騙人 你一定知道的吧

111
00:05:48,900 --> 00:05:50,825
想起來了嗎？決定好了？

112
00:05:51,550 --> 00:05:55,550
真的 還是第一題很簡單呢

113
00:05:55,675 --> 00:05:57,675
真的 要揭曉囉

114
00:05:57,675 --> 00:05:59,679
請秀出來

115
00:06:00,075 --> 00:06:03,425
2011年12月的 7

116
00:06:04,025 --> 00:06:06,525
為什麼覺得是那一天呢

117
00:06:06,525 --> 00:06:09,950
我覺得是7或是9

118
00:06:11,025 --> 00:06:13,150
應該是哪天啊

119
00:06:13,150 --> 00:06:15,075
哪一天呢 這裡有答案

120
00:06:15,075 --> 00:06:17,225
讓我給大家看

121
00:06:17,225 --> 00:06:20,250
正解是 啊，正解是這邊啊

122
00:06:20,250 --> 00:06:23,000
正解是

123
00:06:25,100 --> 00:06:28,650
2011年12月8日！

124
00:06:29,100 --> 00:06:32,650
為什麼忘記了。為什麼跳過8日呢。

125
00:06:32,650 --> 00:06:35,525
不知道。就認為是9日

126
00:06:35,625 --> 00:06:37,750
再說想想就好了

127
00:06:38,075 --> 00:06:40,025
在週年公演中第一次登場

128
00:06:40,375 --> 00:06:43,700
是呢 為什麼突然把週年想成是９日

129
00:06:45,200 --> 00:06:47,125
這個是大問題喔

130
00:06:47,200 --> 00:06:49,225
比我的問題還要嚴重的問題喔

131
00:06:49,600 --> 00:06:53,200
希望這段能被剪掉那樣的大問題呢

132
00:06:53,450 --> 00:06:55,300
沒關係 現在記住了

133
00:06:55,575 --> 00:06:58,025
現在記住了喔

134
00:06:58,025 --> 00:07:00,575
可是你對日期有自信吧

135
00:07:00,900 --> 00:07:02,375
不 我對日期也沒自信

136
00:07:02,375 --> 00:07:03,950
我只有對１２月有自信

137
00:07:04,200 --> 00:07:07,375
真的假的 我們是同一年出道的吧

138
00:07:07,600 --> 00:07:08,225
對

139
00:07:08,550 --> 00:07:10,225
所以我計算了一下

140
00:07:10,225 --> 00:07:12,825
那就繼續第二題吧

141
00:07:13,125 --> 00:07:15,225
這下決定好要處罰了吧

142
00:07:15,775 --> 00:07:17,950
不　真噁心啊～

143
00:07:18,175 --> 00:07:19,250
接著第二題

144
00:07:19,250 --> 00:07:20,450
真是太噁心了

145
00:07:20,600 --> 00:07:23,525
蝗蟲在加油

146
00:07:23,725 --> 00:07:26,350
大家一直在笑 太有趣了

147
00:07:26,675 --> 00:07:28,050
等一下給會大家看

148
00:07:28,050 --> 00:07:30,475
真的等一下拿到每個地方給大家看

149
00:07:30,625 --> 00:07:32,000
這個字形是哪裡找的

150
00:07:32,000 --> 00:07:33,575
計時的時候給大家看

151
00:07:33,575 --> 00:07:35,175
思考時間時給大家看吧

152
00:07:35,525 --> 00:07:37,400
第二題是這個

153
00:07:37,550 --> 00:07:41,225
我小時候想成為什麼呢

154
00:07:41,475 --> 00:07:43,350
是說職業喔

155
00:07:43,525 --> 00:07:46,600
好的 計時開始

156
00:07:46,800 --> 00:07:48,575
大家想看蝗蟲吧

157
00:07:48,800 --> 00:07:51,625
去每個地方給你們看

158
00:07:51,625 --> 00:07:52,725
怎樣？

159
00:07:52,725 --> 00:07:55,400
發出了喔ー的感嘆

160
00:07:55,400 --> 00:07:57,850
很厲害吧（感受到士大夫滿滿的愛ｗｗｗ）

161
00:07:57,950 --> 00:08:00,950
直播的人也給你們看了

162
00:08:01,100 --> 00:08:03,825
這邊也給你們看

163
00:08:04,100 --> 00:08:09,025
大家頭一直往前探要看仔細呢

164
00:08:09,100 --> 00:08:11,525
等下發到推特上吧

165
00:08:11,775 --> 00:08:13,525
大概寫好了

166
00:08:13,800 --> 00:08:17,950
那麼大家來十夢的答案吧

167
00:08:17,950 --> 00:08:20,550
一～二，開花店

168
00:08:20,750 --> 00:08:23,275
為什麼這樣想呢

169
00:08:23,775 --> 00:08:26,100
因為覺得是這種方向

170
00:08:26,150 --> 00:08:28,150
覺得我小時候是這種感覺？

171
00:08:28,525 --> 00:08:33,125
總覺得不破壞形象的話 會是這種答案

172
00:08:33,250 --> 00:08:35,700
那麼公開答案喔

173
00:08:35,900 --> 00:08:40,750
那麼答案在這裡

174
00:08:42,150 --> 00:08:44,225
答錯了

175
00:08:44,325 --> 00:08:46,625
是開麵包店

176
00:08:50,225 --> 00:08:51,825
為什麼

177
00:08:52,150 --> 00:08:55,125
為什麼？猜測的方向是正確的呢

178
00:08:55,225 --> 00:08:56,250
開麵包店

179
00:08:56,425 --> 00:08:57,675
就是想開什麼店嘛

180
00:08:57,925 --> 00:09:01,100
為什麼是面包店 不是花店（大概很愛吃吧ｗ）

181
00:09:01,200 --> 00:09:02,900
我也不知道

182
00:09:02,900 --> 00:09:05,200
就想要開面包店

183
00:09:05,200 --> 00:09:08,675
可是被說開面包店要很早起 所以放棄了

184
00:09:10,200 --> 00:09:11,950
原來如此

185
00:09:12,200 --> 00:09:14,825
之後就憧憬成為偶像了

186
00:09:15,050 --> 00:09:16,975
早點回答是偶像就好了

187
00:09:17,125 --> 00:09:19,250
這種回答比較簡單

188
00:09:19,375 --> 00:09:21,350
那從這裡開始我全答對就好了吧

189
00:09:21,350 --> 00:09:22,125
對的

190
00:09:22,125 --> 00:09:23,850
OK 我明白了

191
00:09:24,400 --> 00:09:26,975
那麼第三題

192
00:09:28,275 --> 00:09:30,650
已經嚇不到我了

193
00:09:32,050 --> 00:09:38,300
問題在這裡 我２５歲最後一天的午飯是什麼？

194
00:09:39,675 --> 00:09:41,550
思考時間計時開始

195
00:09:43,425 --> 00:09:46,750
順道說最後一天 我跟十夢有見面喔

196
00:09:46,750 --> 00:09:48,050
什麼時候？

197
00:09:48,050 --> 00:09:48,875
什麼時候？

198
00:09:48,875 --> 00:09:50,350
對啊，那一天啊

199
00:09:50,350 --> 00:09:51,325
對啊，彩排那邊

200
00:09:51,325 --> 00:09:53,325
等一下，為什麼不是猜晚餐

201
00:09:53,500 --> 00:09:55,050
晚餐我就知道啊！

202
00:09:55,125 --> 00:09:56,075
對啊

203
00:09:56,300 --> 00:09:58,700
可是午餐 我的飯都知道啊

204
00:09:58,950 --> 00:10:01,425
等一下，我知道了

205
00:10:01,950 --> 00:10:04,975
我在AKB mail有寫了

206
00:10:05,125 --> 00:10:07,575
是我的飯絕對會知道

207
00:10:07,850 --> 00:10:12,250
可是十夢醬一定知道吧 因為有見面啊

208
00:10:12,575 --> 00:10:15,225
等等不對 不是這個（托姆醬你好激動）

209
00:10:15,450 --> 00:10:17,100
什麼啊www

210
00:10:17,150 --> 00:10:19,650
你寫什麼啊

211
00:10:19,875 --> 00:10:22,350
這是26歲第一天的午餐(訊息量太大www)

212
00:10:22,450 --> 00:10:24,550
25歲最後的...

213
00:10:24,550 --> 00:10:27,650
25歲最後一天在做什麼？

214
00:10:27,650 --> 00:10:30,099
我們在彩排TIF

215
00:10:30,250 --> 00:10:34,275
彩排TIF...彩排TIF...

216
00:10:34,375 --> 00:10:39,725
我在彩排中吃得東西喔

217
00:10:41,225 --> 00:10:47,375
等一下 彩排TIF的時候我太專心了都記不得了

218
00:10:47,550 --> 00:10:49,650
好傷心（女盆友放在一邊QQ）

219
00:10:49,650 --> 00:10:53,375
TIF彩排中的時候我吃了那個喔

220
00:10:53,800 --> 00:10:55,700
我都說那時太專心了

221
00:10:56,250 --> 00:10:59,625
等下等下 雖然很花時間真的是

222
00:10:59,625 --> 00:11:02,700
是我最喜歡吃的東西啊（女盆友的逼問太難了QQ）

223
00:11:03,050 --> 00:11:10,250
那麼十夢可以猜對嗎 猜錯了就要被處罰

224
00:11:11,450 --> 00:11:15,175
我寫好了

225
00:11:15,200 --> 00:11:18,375
讓我們來看十夢醬的答案吧

226
00:11:18,500 --> 00:11:20,575
鏘 便當

227
00:11:20,775 --> 00:11:23,450
好隨便啊

228
00:11:25,725 --> 00:11:27,950
你最喜歡便當了吧

229
00:11:28,225 --> 00:11:30,750
我喜歡便當啊

230
00:11:30,750 --> 00:11:32,400
正解是什麼

231
00:11:32,400 --> 00:11:35,150
正解在這裡

232
00:11:35,200 --> 00:11:36,775
珍珠奶茶

233
00:11:36,875 --> 00:11:38,325
這不是吃的食物！

234
00:11:38,325 --> 00:11:40,325
可以吃喔  珍珠

235
00:11:40,475 --> 00:11:42,925
珍珠是這樣 奶茶不是

236
00:11:43,125 --> 00:11:46,050
我在那天找不到時間吃午餐

237
00:11:46,300 --> 00:11:49,075
就在想彩排中可以吃什麼

238
00:11:49,225 --> 00:11:52,475
如果跟水分一起就可以吃了

239
00:11:52,475 --> 00:11:54,000
所以買了珍珠奶茶

240
00:11:54,000 --> 00:11:56,675
順道我想給你看第一次寫的你26歲第一次吃的午餐

241
00:11:56,750 --> 00:11:57,725
什麼？

242
00:11:57,725 --> 00:11:59,625
義大利涼麵 答對了吧

243
00:11:59,800 --> 00:12:01,925
恩 大概 我想一下

244
00:12:01,925 --> 00:12:04,500
是鮪魚跟番茄的義大利冷麵吧

245
00:12:04,500 --> 00:12:05,275
對啊

246
00:12:05,300 --> 00:12:08,650
這裡不給我一分嗎

247
00:12:08,650 --> 00:12:11,450
嘛 你有記住呢

248
00:12:12,025 --> 00:12:16,950
順道說２５歲的午餐。。。２６歲最後、一開始的午餐我也知道喔

249
00:12:16,950 --> 00:12:18,125
什麼？

250
00:12:18,125 --> 00:12:19,575
燉菜對吧

251
00:12:19,575 --> 00:12:20,950
26歲第一次的午餐？

252
00:12:20,950 --> 00:12:22,200
不對嗎？

253
00:12:22,200 --> 00:12:23,600
昨天的午餐

254
00:12:23,600 --> 00:12:24,600
我吃了什麼？

255
00:12:24,600 --> 00:12:25,950
剛剛不是說燉菜了

256
00:12:25,950 --> 00:12:28,250
昨天也吃了燉菜？啊對耶是燉菜

257
00:12:28,250 --> 00:12:29,600
看吧！（合照都懶得曬了...）

258
00:12:29,600 --> 00:12:32,050
這裡給我一分也可以吧

259
00:12:32,150 --> 00:12:34,100
好吧 給你一分吧

260
00:12:34,100 --> 00:12:35,750
好耶 到手了

261
00:12:35,750 --> 00:12:37,450
千鈞一髮

262
00:12:37,850 --> 00:12:40,500
這是第四題喔

263
00:12:41,200 --> 00:12:43,500
還有兩題 請加油

264
00:12:44,075 --> 00:12:47,025
第四題是這裡

265
00:12:47,025 --> 00:12:55,325
我不再稱呼十夢桑的契機是在young tour的彩排。那是哪一場公演呢?

266
00:12:55,750 --> 00:12:58,325
請作答

267
00:12:58,325 --> 00:13:00,500
請回答吧

268
00:13:00,775 --> 00:13:04,200
感情變好的契機是在young tour吧

269
00:13:04,200 --> 00:13:06,450
有這樣的印象

270
00:13:06,450 --> 00:13:09,025
不是這場嗎？

271
00:13:09,325 --> 00:13:11,150
你記得嗎

272
00:13:11,150 --> 00:13:13,350
回答了喔 一、二

273
00:13:13,350 --> 00:13:14,825
長崎公演

274
00:13:14,825 --> 00:13:17,575
有長崎公演嗎？

275
00:13:18,100 --> 00:13:20,175
我覺得有喔？

276
00:13:20,175 --> 00:13:21,675
OK 給我看答案

277
00:13:21,825 --> 00:13:23,525
正解在這裡

278
00:13:23,525 --> 00:13:26,300
是岡山公演

279
00:13:31,025 --> 00:13:34,118
是岡山公演

280
00:13:34,118 --> 00:13:37,700
我昨天在網路上搜尋了

281
00:13:37,700 --> 00:13:38,900
網路搜尋？

282
00:13:38,900 --> 00:13:40,475
因為我也不知道

283
00:13:40,525 --> 00:13:41,600
我也覺得你不知道

284
00:13:41,600 --> 00:13:45,300
查了之後 我們有一起參加的公演只有這一場

285
00:13:45,300 --> 00:13:46,950
這樣嗎？

286
00:13:47,325 --> 00:13:50,925
這之前的公演我沒有出場

287
00:13:51,200 --> 00:13:53,100
只有這一場在一起 所以我想是這場吧

288
00:13:53,100 --> 00:13:54,575
原來如此

289
00:13:54,850 --> 00:13:56,500
對 記憶中是這樣

290
00:13:56,675 --> 00:13:58,775
已經不行了（女盆友糾結起回憶真可怕www）

291
00:13:58,950 --> 00:14:01,600
不過還有一題 可以陪我玩嗎

292
00:14:01,600 --> 00:14:03,125
知道了

293
00:14:06,125 --> 00:14:10,550
那麼第五題在這裡

294
00:14:11,050 --> 00:14:12,725
真噁心～

295
00:14:12,725 --> 00:14:14,250
噁心

296
00:14:16,275 --> 00:14:19,975
看起來很像蟑螂大軍啊

297
00:14:19,975 --> 00:14:21,725
才不是 很好吃的

298
00:14:21,725 --> 00:14:23,425
（很好吃...）

299
00:14:23,525 --> 00:14:25,925
請寫五點最喜歡我的地方

300
00:14:25,925 --> 00:14:27,700
這好像送分題

301
00:14:27,700 --> 00:14:30,925
這個啊不管寫不寫都是處罰啊

302
00:14:31,525 --> 00:14:34,850
不知道喔這個看我心情

303
00:14:37,275 --> 00:14:40,925
大家拼命探頭要看清楚

304
00:14:41,225 --> 00:14:42,675
是五個喔五個

305
00:14:43,125 --> 00:14:45,175
喜歡我的五個地方

306
00:14:45,175 --> 00:14:48,450
喜歡的...什麼啊（給傲嬌的拷問QQ）

307
00:14:48,450 --> 00:14:50,225
要寫五個喔

308
00:14:50,225 --> 00:14:52,925
不覺得很沈重嗎

309
00:14:52,925 --> 00:14:55,200
總是這樣呢

310
00:14:55,350 --> 00:14:59,800
一個都還沒寫啊

311
00:14:59,800 --> 00:15:01,625
太～慢～了

312
00:15:01,900 --> 00:15:05,000
好煩、好煩啊！

313
00:15:11,800 --> 00:15:13,825
這個蝗蟲真的很厲害呢

314
00:15:13,825 --> 00:15:16,475
我知道了 我一個一個說出來不就好了

315
00:15:16,475 --> 00:15:17,450
對呢

316
00:15:17,550 --> 00:15:20,325
寫下來好麻煩啊

317
00:15:20,325 --> 00:15:21,700
第一個

318
00:15:23,325 --> 00:15:25,975
不會去干涉別人

319
00:15:26,025 --> 00:15:27,050
啊～原來如此

320
00:15:27,050 --> 00:15:30,730
不去干涉別人 感覺不是在誇獎不過算了

321
00:15:30,730 --> 00:15:30,754
這是喜歡的點呢

322
00:15:30,754 --> 00:15:32,600
這是喜歡的點呢

323
00:15:32,624 --> 00:15:34,250
對對 喜歡的點（哄女盆友好辛苦的臉）

324
00:15:34,250 --> 00:15:35,338
個人的喜好呢

325
00:15:35,338 --> 00:15:41,600
還有 我忘記說過這件事 一樣的話題重複好幾次

326
00:15:41,600 --> 00:15:44,125
這個 之前也說過了

327
00:15:44,525 --> 00:15:47,350
都不抱怨會一直聽我說這一點

328
00:15:47,350 --> 00:15:48,725
恩，對呢

329
00:15:48,875 --> 00:15:50,150
對，第二點

330
00:15:50,175 --> 00:15:51,975
總覺得

331
00:15:51,975 --> 00:15:52,775
怎麼了，很普通？

332
00:15:52,775 --> 00:15:56,725
好像結婚很久的老夫老妻喔

333
00:15:56,725 --> 00:15:58,450
不像嗎？

334
00:15:59,375 --> 00:16:01,475
第三個（害羞了吧　ｗｗｗ）

335
00:16:02,950 --> 00:16:05,200
等下 我要想想

336
00:16:05,200 --> 00:16:07,350
不對吧不對吧 第三個。。。

337
00:16:07,350 --> 00:16:10,237
很有企劃力這一點

338
00:16:10,237 --> 00:16:13,837
真的嗎？謝謝謝謝

339
00:16:13,837 --> 00:16:15,887
第四點

340
00:16:18,075 --> 00:16:19,300
這個啊

341
00:16:21,425 --> 00:16:26,000
意外的個性很大辣辣這點

342
00:16:27,375 --> 00:16:29,100
我有自覺喔

343
00:16:29,200 --> 00:16:31,525
不知道大家怎麼看呢

344
00:16:31,525 --> 00:16:33,825
大概不知道呢

345
00:16:33,825 --> 00:16:36,300
來握手很多年的人會說

346
00:16:36,525 --> 00:16:39,350
啊，傻貨醬好冷淡啊

347
00:16:39,675 --> 00:16:43,125
大概對第一次去握手或是次數不多的人來說

348
00:16:43,500 --> 00:16:46,425
傻貨醬今天也會裝可愛吧 大概這種感覺吧

349
00:16:46,450 --> 00:16:48,925
對呢 比想像中的還沒在裝可愛

350
00:16:49,000 --> 00:16:50,100
有被說呢

351
00:16:50,100 --> 00:16:52,675
沒有表面這麼愛裝可愛 這一點

352
00:16:52,675 --> 00:16:54,625
還有一個

353
00:16:54,625 --> 00:16:56,100
最後一個吧

354
00:16:56,100 --> 00:16:58,200
最後是

355
00:17:03,325 --> 00:17:06,950
好長啊～～

356
00:17:07,225 --> 00:17:10,800
發生事情的時候 有傻貨在的話就讓人安心這一點

357
00:17:10,800 --> 00:17:13,425
真假 好開勳

358
00:17:16,125 --> 00:17:19,275
怎樣 懲罰遊戲

359
00:17:19,400 --> 00:17:22,475
雖然第五題是大正解

360
00:17:22,475 --> 00:17:24,000
可是

361
00:17:24,275 --> 00:17:26,800
要處罰

362
00:17:32,550 --> 00:17:35,450
那麼處罰是

363
00:17:35,600 --> 00:17:36,800
什麼處罰啊

364
00:17:36,875 --> 00:17:39,550
雖然對我也是迫不得以呢

365
00:17:39,725 --> 00:17:43,261
跟我一起表演我的catch phrase

366
00:17:44,050 --> 00:17:46,875
這根本不算處罰 對吧大家

367
00:17:46,975 --> 00:17:48,000
大家都想做吧

368
00:17:48,300 --> 00:17:49,525
看吧

369
00:17:50,025 --> 00:17:51,350
一起做是什麼意思

370
00:17:51,500 --> 00:17:52,775
當然是說一對一的發聲練習啊

371
00:17:53,050 --> 00:17:54,800
（一對一）

372
00:17:56,200 --> 00:18:01,275
相對傻貨我從這邊的角度來表演 是說這樣嗎

373
00:18:01,275 --> 00:18:03,075
原來如此

374
00:18:03,075 --> 00:18:05,325
那麼來作吧

375
00:18:05,325 --> 00:18:07,350
開始喔

376
00:18:07,350 --> 00:18:09,625
十夢醬 發聲練習開始了

377
00:18:10,100 --> 00:18:12,175
請跟著我這樣說

378
00:18:14,750 --> 00:18:17,075
大家給提示了喔

379
00:18:18,425 --> 00:18:20,500
ya~ho~

380
00:18:20,500 --> 00:18:22,050
太快了～

381
00:18:22,400 --> 00:18:26,400
不不不 才不快呢 擅自說

382
00:18:26,400 --> 00:18:29,200
繼續喔 ya~ho~

383
00:18:29,200 --> 00:18:31,600
ya~ho~~

384
00:18:31,600 --> 00:18:33,600
太～小～聲

385
00:18:33,725 --> 00:18:36,300
我沒聽過這句台詞

386
00:18:36,575 --> 00:18:39,950
沒什麼機會啊 因為大家總是很吵

387
00:18:39,950 --> 00:18:41,375
的確的確

388
00:18:41,500 --> 00:18:44,875
ya~ho~

389
00:18:44,875 --> 00:18:49,368
sa~ho

390
00:18:52,725 --> 00:18:54,800
sa~ho

391
00:18:54,850 --> 00:18:57,275
真是～太~慢~了

392
00:18:57,400 --> 00:18:59,825
我明明好好說了

393
00:19:02,300 --> 00:19:04,825
哪裡慢了

394
00:19:05,075 --> 00:19:07,075
太慢了

395
00:19:07,250 --> 00:19:08,850
太慢了嗎...(無奈到不行的男盆友)

396
00:19:08,850 --> 00:19:10,100
對不起（認命了www）

397
00:19:10,225 --> 00:19:11,750
好了 我也滿足了

398
00:19:11,800 --> 00:19:13,975
以上是沙穗猜謎環節

399
00:19:14,100 --> 00:19:16,350
到底做了什麼（興奮到流口水了www）

400
00:19:17,100 --> 00:19:19,800
好的 那把這個放一邊去

401
00:19:19,975 --> 00:19:23,050
來前往下一首曲目

402
00:19:23,225 --> 00:19:25,250
稍微等一下 我必須要冷靜點

403
00:19:25,250 --> 00:19:27,625
MC如果表演太長了

404
00:19:27,625 --> 00:19:31,725
就變成要講到結束的氣氛

405
00:19:31,825 --> 00:19:34,025
之後還有呢

406
00:19:34,025 --> 00:19:35,550
還有呢

407
00:19:36,725 --> 00:19:38,700
會緊張呢

408
00:19:38,800 --> 00:19:40,750
要開始唱歌的瞬間就會緊張了

409
00:19:40,875 --> 00:19:43,500
而且對這邊的部分會稍微緊張吧

410
00:19:43,675 --> 00:19:44,825
恩 加油吧

411
00:19:45,000 --> 00:19:46,550
一起加油吧

412
00:19:46,900 --> 00:19:50,725
好的 這是接下來的歌曲 請聽

